Freedom Index
…
4 Reading in extra data

We have seen that the freedoms enjoyed by a given country are correlated with: (1) where the country is located in terms of region; and (2) whether the country is developed or not. These two fact suggest a relationship between economic wealth and political freedom.

As such, lets read in some new data. The wdi package—which I learned about from David Robinson’s video on the topic of this very dataset —gives us access to GDP data for each country over the entire time period in which we are interested.

world_bank_data <- WDI(indicator = "NY.GDP.PCAP.CD", extra = TRUE)

We need to join the above to our freedom_data dataset. Does the country column in the two datasets line up?

freedom_data |> 
   anti_join(world_bank_data, by = "country") |> 
   distinct(country)

# A tibble: 25 × 1
   country                         
   <chr>                           
 1 Bahamas                         
 2 Bolivia (Plurinational State of)
 3 Congo                           
 4 Democratic Republic of the Congo
 5 Ivory Coast                     
 6 Egypt                           
 7 Iran (Islamic Republic of)      
 8 Kyrgyzstan                      
 9 Lao People's Democratic Republic
10 Micronesia (Federated States of)
# ℹ 15 more rows
…
